…
Let us start by reshaping this data to the long form. Note that the long
form is usually a lot easier to analyze and visualize and is preferred
by most data scientists using the `tidyverse`.

``` r
billboard_long <- billboard |> 
  pivot_longer(
    cols = starts_with('wk'),
    names_to = 'week',
    values_to = 'rank'
  )

billboard_long
#> # A tibble: 24,092 × 5
#>    artist track                   date.entered week   rank
#>    <chr>  <chr>                   <date>       <chr> <dbl>
#>  1 2 Pac  Baby Don't Cry (Keep... 2000-02-26   wk1      87
#>  2 2 Pac  Baby Don't Cry (Keep... 2000-02-26   wk2      82
#>  3 2 Pac  Baby Don't Cry (Keep... 2000-02-26   wk3      72
#>  4 2 Pac  Baby Don't Cry (Keep... 2000-02-26   wk4      77
#>  5 2 Pac  Baby Don't Cry (Keep... 2000-02-26   wk5      87
#>  6 2 Pac  Baby Don't Cry (Keep... 2000-02-26   wk6      94
#>  7 2 Pac  Baby Don't Cry (Keep... 2000-02-26   wk7      99
#>  8 2 Pac  Baby Don't Cry (Keep... 2000-02-26   wk8      NA
#>  9 2 Pac  Baby Don't Cry (Keep... 2000-02-26   wk9      NA
#> 10 2 Pac  Baby Don't Cry (Keep... 2000-02-26   wk10     NA
#> # ℹ 24,082 more rows
```
…
#### `pivot_wider()`: Pivot data from long to wide

Let us reshape `billboard_long` back to the wide format using the
`pivot_wider()` function.

``` r
billboard_long |> 
  pivot_wider(
    names_from = week,
    values_from = rank
  )
#> # A tibble: 317 × 79
#>    artist     track date.entered   wk1   wk2   wk3   wk4   wk5   wk6   wk7   wk8
#>    <chr>      <chr> <date>       <dbl> <dbl> <dbl> <dbl> <dbl> <dbl> <dbl> <dbl>
#>  1 2 Pac      Baby… 2000-02-26      87    82    72    77    87    94    99    NA
#>  2 2Ge+her    The … 2000-09-02      91    87    92    NA    NA    NA    NA    NA
#>  3 3 Doors D… Kryp… 2000-04-08      81    70    68    67    66    57    54    53
#>  4 3 Doors D… Loser 2000-10-21      76    76    72    69    67    65    55    59
#>  5 504 Boyz   Wobb… 2000-04-15      57    34    25    17    17    31    36    49
#>  6 98^0       Give… 2000-08-19      51    39    34    26    26    19     2     2
#>  7 A*Teens    Danc… 2000-07-08      97    97    96    95   100    NA    NA    NA
#>  8 Aaliyah    I Do… 2000-01-29      84    62    51    41    38    35    35    38
#>  9 Aaliyah    Try … 2000-03-18      59    53    38    28    21    18    16    14
#> 10 Adams, Yo… Open… 2000-08-26      76    76    74    69    68    67    61    58
#> # ℹ 307 more rows
#> # ℹ 68 more variables: wk9 <dbl>, wk10 <dbl>, wk11 <dbl>, wk12 <dbl>,
#> #   wk13 <dbl>, wk14 <dbl>, wk15 <dbl>, wk16 <dbl>, wk17 <dbl>, wk18 <dbl>,
#> #   wk19 <dbl>, wk20 <dbl>, wk21 <dbl>, wk22 <dbl>, wk23 <dbl>, wk24 <dbl>,
#> #   wk25 <dbl>, wk26 <dbl>, wk27 <dbl>, wk28 <dbl>, wk29 <dbl>, wk30 <dbl>,
#> #   wk31 <dbl>, wk32 <dbl>, wk33 <dbl>, wk34 <dbl>, wk35 <dbl>, wk36 <dbl>,
#> #   wk37 <dbl>, wk38 <dbl>, wk39 <dbl>, wk40 <dbl>, wk41 <dbl>, wk42 <dbl>, …
```
…
#### `unnest()`: Unnest a list-column of data frames

**Unnesting**, on the other hand, involves taking data that is nested in
a column and spreading it out into separate columns. This can be useful
when we want to perform analyses on individual components of our data
that are currently grouped together.

``` r
tbl_names_nested |> 
  unnest(nb_births_by_year)
#> # A tibble: 2,052,781 × 4
#> # Groups:   sex, name [112,620]
#>    name  sex    year nb_births
#>    <chr> <chr> <dbl>     <dbl>
#>  1 Mary  F      1880      7065
#>  2 Mary  F      1881      6919
#>  3 Mary  F      1882      8148
#>  4 Mary  F      1883      8012
#>  5 Mary  F      1884      9217
#>  6 Mary  F      1885      9128
#>  7 Mary  F      1886      9889
#>  8 Mary  F      1887      9888
#>  9 Mary  F      1888     11754
#> 10 Mary  F      1889     11648
#> # ℹ 2,052,771 more rows
```
…
``` r
starwars_name_films$films[[1]]
#> [1] "The Empire Strikes Back" "Revenge of the Sith"    
#> [3] "Return of the Jedi"      "A New Hope"             
#> [5] "The Force Awakens"
```

We can use `unnest_longer()` to unnest this column along the length of
the data frame such that every film gets its own row.

``` r
starwars |> 
  select(name, films) |> 
  unnest_longer(films)
#> # A tibble: 173 × 2
#>    name           films                  
#>    <chr>          <chr>                  
#>  1 Luke Skywalker The Empire Strikes Back
#>  2 Luke Skywalker Revenge of the Sith    
#>  3 Luke Skywalker Return of the Jedi     
#>  4 Luke Skywalker A New Hope             
#>  5 Luke Skywalker The Force Awakens      
#>  6 C-3PO          The Empire Strikes Back
#>  7 C-3PO          Attack of the Clones   
#>  8 C-3PO          The Phantom Menace     
#>  9 C-3PO          Revenge of the Sith    
#> 10 C-3PO          Return of the Jedi     
#> # ℹ 163 more rows
```

#### `unnest_wider()`: Unnest a list-column into columns

Alternately, we could also unnest it wider so that each `name` still has
only one `row`, but each film gets its own column.

``` r
starwars |> 
  select(name, films) |> 
  unnest_wider(films, names_sep = "_")
#> # A tibble: 87 × 8
#>    name               films_1    films_2 films_3 films_4 films_5 films_6 films_7
#>    <chr>              <chr>      <chr>   <chr>   <chr>   <chr>   <chr>   <chr>  
#>  1 Luke Skywalker     The Empir… Reveng… Return… A New … The Fo… <NA>    <NA>   
#>  2 C-3PO              The Empir… Attack… The Ph… Reveng… Return… A New … <NA>   
#>  3 R2-D2              The Empir… Attack… The Ph… Reveng… Return… A New … The Fo…
#>  4 Darth Vader        The Empir… Reveng… Return… A New … <NA>    <NA>    <NA>   
#>  5 Leia Organa        The Empir… Reveng… Return… A New … The Fo… <NA>    <NA>   
#>  6 Owen Lars          Attack of… Reveng… A New … <NA>    <NA>    <NA>    <NA>   
#>  7 Beru Whitesun lars Attack of… Reveng… A New … <NA>    <NA>    <NA>    <NA>   
#>  8 R5-D4              A New Hope <NA>    <NA>    <NA>    <NA>    <NA>    <NA>   
#>  9 Biggs Darklighter  A New Hope <NA>    <NA>    <NA>    <NA>    <NA>    <NA>   
#> 10 Obi-Wan Kenobi     The Empir… Attack… The Ph… Reveng… Return… A New … <NA>   
#> # ℹ 77 more rows
```
…
#### `unnest_auto()`: Unnest a list-column automatically

Finally, we have the `unnest_auto()` function which automatically uses
`unnest_longer()` or `unnest_wider()` based on which one is more
appropriate. It displays a message on which function it chose and some
reasoning behind it.

``` r
starwars |> 
  select(name, films) |> 
  unnest_auto(films)
#> Using `unnest_longer(films, indices_include = FALSE)`; no element has names
#> # A tibble: 173 × 2
#>    name           films                  
#>    <chr>          <chr>                  
#>  1 Luke Skywalker The Empire Strikes Back
#>  2 Luke Skywalker Revenge of the Sith    
#>  3 Luke Skywalker Return of the Jedi     
#>  4 Luke Skywalker A New Hope             
#>  5 Luke Skywalker The Force Awakens      
#>  6 C-3PO          The Empire Strikes Back
#>  7 C-3PO          Attack of the Clones   
#>  8 C-3PO          The Phantom Menace     
#>  9 C-3PO          Revenge of the Sith    
#> 10 C-3PO          Return of the Jedi     
#> # ℹ 163 more rows
```
…
We can use the `separate_rows()` function to separate this collapsed
column into multiple rows.

``` r
starwars |> 
  select(name, skin_color) |> 
  separate_rows(skin_color)
#> # A tibble: 107 × 2
#>    name               skin_color
#>    <chr>              <chr>     
#>  1 Luke Skywalker     fair      
#>  2 C-3PO              gold      
#>  3 R2-D2              white     
#>  4 R2-D2              blue      
#>  5 Darth Vader        white     
#>  6 Leia Organa        light     
#>  7 Owen Lars          light     
#>  8 Beru Whitesun lars light     
#>  9 R5-D4              white     
#> 10 R5-D4              red       
#> # ℹ 97 more rows
```
