R for Data Science
…
```r
tbl_names <- "data/names.csv.gz" |> 
  # Get absolute path to csv file
  here::here() |> 
  # Read csv file
  readr::read_csv(show_col_types = FALSE)

tbl_names
```
]

.right-plot[

```
# A tibble: 2,052,781 × 4
    year name      sex   nb_births
   <dbl> <chr>     <chr>     <dbl>
 1  1880 Mary      F          7065
 2  1880 Anna      F          2604
 3  1880 Emma      F          2003
 4  1880 Elizabeth F          1939
 5  1880 Minnie    F          1746
 6  1880 Margaret  F          1578
 7  1880 Ida       F          1472
 8  1880 Alice     F          1414
 9  1880 Bertha    F          1320
10  1880 Sarah     F          1288
# ℹ 2,052,771 more rows
```
…
# Transform > Step 1
.panel1-md-transform-data-1-auto[

```r
*tbl_names_top_100_female <- tbl_names

tbl_names_top_100_female
```
]
 
.panel2-md-transform-data-1-auto[

```
# A tibble: 2,052,781 × 4
    year name      sex   nb_births
   <dbl> <chr>     <chr>     <dbl>
 1  1880 Mary      F          7065
 2  1880 Anna      F          2604
 3  1880 Emma      F          2003
 4  1880 Elizabeth F          1939
 5  1880 Minnie    F          1746
 6  1880 Margaret  F          1578
 7  1880 Ida       F          1472
 8  1880 Alice     F          1414
 9  1880 Bertha    F          1320
10  1880 Sarah     F          1288
# ℹ 2,052,771 more rows
```
…
# Transform > Step 1
.panel1-md-transform-data-1-auto[

```r
tbl_names_top_100_female <- tbl_names |>
* filter(sex == "F")

tbl_names_top_100_female
```
]
 
.panel2-md-transform-data-1-auto[

```
# A tibble: 1,209,866 × 4
    year name      sex   nb_births
   <dbl> <chr>     <chr>     <dbl>
 1  1880 Mary      F          7065
 2  1880 Anna      F          2604
 3  1880 Emma      F          2003
 4  1880 Elizabeth F          1939
 5  1880 Minnie    F          1746
 6  1880 Margaret  F          1578
 7  1880 Ida       F          1472
 8  1880 Alice     F          1414
 9  1880 Bertha    F          1320
10  1880 Sarah     F          1288
# ℹ 1,209,856 more rows
```
…
```r
tbl_names_top_100_female <- tbl_names |>
  filter(sex == "F") |>
* group_by(name)

tbl_names_top_100_female
```
]
 
.panel2-md-transform-data-1-auto[

```
# A tibble: 1,209,866 × 4
# Groups:   name [69,527]
    year name      sex   nb_births
   <dbl> <chr>     <chr>     <dbl>
 1  1880 Mary      F          7065
 2  1880 Anna      F          2604
 3  1880 Emma      F          2003
 4  1880 Elizabeth F          1939
 5  1880 Minnie    F          1746
 6  1880 Margaret  F          1578
 7  1880 Ida       F          1472
 8  1880 Alice     F          1414
 9  1880 Bertha    F          1320
10  1880 Sarah     F          1288
# ℹ 1,209,856 more rows
```
…
tbl_names_top_100_female
```
]
 
.panel2-md-transform-data-1-auto[

```
# A tibble: 69,527 × 2
   name      nb_births
   <chr>         <dbl>
 1 Aabha            51
 2 Aabidah           5
 3 Aabriella        51
 4 Aada             13
 5 Aadaya            9
 6 Aaden             5
 7 Aadhini           7
 8 Aadhira         200
 9 Aadhirai          5
10 Aadhvika         31
# ℹ 69,517 more rows
```
…
tbl_names_top_100_female
```
]
 
.panel2-md-transform-data-1-auto[

```
# A tibble: 100 × 2
   name      nb_births
   <chr>         <dbl>
 1 Mary        4132497
 2 Elizabeth   1661030
 3 Patricia    1572795
 4 Jennifer    1469379
 5 Linda       1453755
 6 Barbara     1435386
 7 Margaret    1255686
 8 Susan       1122518
 9 Dorothy     1109423
10 Sarah       1087196
# ℹ 90 more rows
```
…
# Transform > Step 2
.panel1-md-transform-data-2-auto[

```r
*tbl_names_trends <- tbl_names

tbl_names_trends
```
]
 
.panel2-md-transform-data-2-auto[

```
# A tibble: 2,052,781 × 4
    year name      sex   nb_births
   <dbl> <chr>     <chr>     <dbl>
 1  1880 Mary      F          7065
 2  1880 Anna      F          2604
 3  1880 Emma      F          2003
 4  1880 Elizabeth F          1939
 5  1880 Minnie    F          1746
 6  1880 Margaret  F          1578
 7  1880 Ida       F          1472
 8  1880 Alice     F          1414
 9  1880 Bertha    F          1320
10  1880 Sarah     F          1288
# ℹ 2,052,771 more rows
```
…
```r
tbl_names_trends <- tbl_names |>
* semi_join(
*   tbl_names_top_100_female,
*   by = "name"
* )

tbl_names_trends
```
]
 
.panel2-md-transform-data-2-auto[

```
# A tibble: 21,469 × 4
    year name      sex   nb_births
   <dbl> <chr>     <chr>     <dbl>
 1  1880 Mary      F          7065
 2  1880 Anna      F          2604
 3  1880 Emma      F          2003
 4  1880 Elizabeth F          1939
 5  1880 Margaret  F          1578
 6  1880 Alice     F          1414
 7  1880 Sarah     F          1288
 8  1880 Martha    F          1040
 9  1880 Laura     F          1012
10  1880 Grace     F           982
# ℹ 21,459 more rows
```
…
tbl_names_trends
```
]
 
.panel2-md-transform-data-2-auto[

```
# A tibble: 21,469 × 4
# Groups:   year [142]
    year name      sex   nb_births
   <dbl> <chr>     <chr>     <dbl>
 1  1880 Mary      F          7065
 2  1880 Anna      F          2604
 3  1880 Emma      F          2003
 4  1880 Elizabeth F          1939
 5  1880 Margaret  F          1578
 6  1880 Alice     F          1414
 7  1880 Sarah     F          1288
 8  1880 Martha    F          1040
 9  1880 Laura     F          1012
10  1880 Grace     F           982
# ℹ 21,459 more rows
```
…
tbl_names_trends
```
]
 
.panel2-md-transform-data-2-auto[

```
# A tibble: 21,469 × 5
# Groups:   year [142]
    year name      sex   nb_births  rank
   <dbl> <chr>     <chr>     <dbl> <int>
 1  1880 Mary      F          7065     1
 2  1880 Anna      F          2604     2
 3  1880 Emma      F          2003     3
 4  1880 Elizabeth F          1939     4
 5  1880 Margaret  F          1578     5
 6  1880 Alice     F          1414     6
 7  1880 Sarah     F          1288     7
 8  1880 Martha    F          1040     8
 9  1880 Laura     F          1012     9
10  1880 Grace     F           982    10
# ℹ 21,459 more rows
```
…
tbl_names_trends
```
]
 
.panel2-md-transform-data-2-auto[

```
# A tibble: 2,843 × 5
# Groups:   year [142]
    year name      sex   nb_births  rank
   <dbl> <chr>     <chr>     <dbl> <int>
 1  1880 Mary      F          7065     1
 2  1880 Anna      F          2604     2
 3  1880 Emma      F          2003     3
 4  1880 Elizabeth F          1939     4
 5  1880 Margaret  F          1578     5
 6  1880 Alice     F          1414     6
 7  1880 Sarah     F          1288     7
 8  1880 Martha    F          1040     8
 9  1880 Laura     F          1012     9
10  1880 Grace     F           982    10
# ℹ 2,833 more rows
```
…
count: false
 
# Visualize
.panel1-md-visualize-data-auto[

```r
*tbl_names_trends
```
]
 
.panel2-md-visualize-data-auto[

```
# A tibble: 2,843 × 5
# Groups:   year [142]
    year name      sex   nb_births  rank
   <dbl> <chr>     <chr>     <dbl> <int>
 1  1880 Mary      F          7065     1
 2  1880 Anna      F          2604     2
 3  1880 Emma      F          2003     3
 4  1880 Elizabeth F          1939     4
 5  1880 Margaret  F          1578     5
 6  1880 Alice     F          1414     6
 7  1880 Sarah     F          1288     7
 8  1880 Martha    F          1040     8
 9  1880 Laura     F          1012     9
10  1880 Grace     F           982    10
# ℹ 2,833 more rows
```
…
# Visualize
.panel1-md-visualize-data-auto[

```r
tbl_names_trends |>
* filter(year > 2000)
```
]
 
.panel2-md-visualize-data-auto[

```
# A tibble: 420 × 5
# Groups:   year [21]
    year name      sex   nb_births  rank
   <dbl> <chr>     <chr>     <dbl> <int>
 1  2001 Emily     F         25058     1
 2  2001 Madison   F         22166     2
 3  2001 Hannah    F         20719     3
 4  2001 Ashley    F         16529     4
 5  2001 Sarah     F         15915     5
 6  2001 Samantha  F         15866     6
 7  2001 Abigail   F         14807     7
 8  2001 Elizabeth F         14790     8
 9  2001 Olivia    F         13977     9
10  2001 Jessica   F         13923    10
# ℹ 410 more rows
```
…
