…
Fortunately for us, the `tidyverse` provides us with a grammar of data
transformation as well, that makes it easy to make data bend to our will
and wishes. Once you understand this grammar, you will be able to make
any dataset dance to your tunes!

Let us read in the `babynames` dataset, so we can use it in addition to
the `diamonds` dataset.

``` r
FILE_NAMES <- here::here("data/names.csv.gz")
babynames <- readr::read_csv(FILE_NAMES, show_col_types = FALSE)
babynames
```

    #> # A tibble: 2,052,781 × 4
    #>     year name      sex   nb_births
    #>    <dbl> <chr>     <chr>     <dbl>
    #>  1  1880 Mary      F          7065
    #>  2  1880 Anna      F          2604
    #>  3  1880 Emma      F          2003
    #>  4  1880 Elizabeth F          1939
    #>  5  1880 Minnie    F          1746
    #>  6  1880 Margaret  F          1578
    #>  7  1880 Ida       F          1472
    #>  8  1880 Alice     F          1414
    #>  9  1880 Bertha    F          1320
    #> 10  1880 Sarah     F          1288
    #> # ℹ 2,052,771 more rows
…
diamonds_by_cut_clarity
```

    #> # A tibble: 40 × 5
    #>    cut   clarity avg_price avg_carat avg_price_per_carat
    #>    <ord> <ord>       <dbl>     <dbl>               <dbl>
    #>  1 Fair  I1          3704.     1.36                2721.
    #>  2 Fair  SI2         5174.     1.20                4298.
    #>  3 Fair  SI1         4208.     0.965               4363.
    #>  4 Fair  VS2         4175.     0.885               4716.
    #>  5 Fair  VS1         4165.     0.880               4734.
    #>  6 Fair  VVS2        3350.     0.692               4844.
    #>  7 Fair  VVS1        3871.     0.665               5824.
    #>  8 Fair  IF          1912.     0.474               4031.
    #>  9 Good  I1          3597.     1.20                2990.
    #> 10 Good  SI2         4580.     1.04                4424.
    #> # ℹ 30 more rows
…
