…
### Import

As always, let’s start by importing the data from `data/names.csv.gz`.

``` r
file_name_names <- here::here('data/names.csv.gz')
tbl_names <- readr::read_csv(file_name_names, show_col_types = FALSE)
tbl_names
#> # A tibble: 2,052,781 × 4
#>     year name      sex   nb_births
#>    <dbl> <chr>     <chr>     <dbl>
#>  1  1880 Mary      F          7065
#>  2  1880 Anna      F          2604
#>  3  1880 Emma      F          2003
#>  4  1880 Elizabeth F          1939
#>  5  1880 Minnie    F          1746
#>  6  1880 Margaret  F          1578
#>  7  1880 Ida       F          1472
#>  8  1880 Alice     F          1414
#>  9  1880 Bertha    F          1320
#> 10  1880 Sarah     F          1288
#> # ℹ 2,052,771 more rows
```
…
#### Step 1

Let us start by computing the total number of births by `name` and
`sex`.

``` r
tbl_names_unisex_1 <- tbl_names |> 
  group_by(name, sex) |> 
  summarize(
    nb_births = sum(nb_births),
    .groups = 'drop'
  )

tbl_names_unisex_1
#> # A tibble: 112,620 × 3
#>    name      sex   nb_births
#>    <chr>     <chr>     <dbl>
#>  1 Aaban     M           120
#>  2 Aabha     F            51
#>  3 Aabid     M            16
#>  4 Aabidah   F             5
#>  5 Aabir     M            10
#>  6 Aabriella F            51
#>  7 Aada      F            13
#>  8 Aadam     M           320
#>  9 Aadan     M           130
#> 10 Aadarsh   M           233
#> # ℹ 112,610 more rows
```
…
We can now pivot this data to the wide format so we can have ONE row per
name.

``` r
tbl_names_unisex_2 <- tbl_names_unisex_1 |> 
  pivot_wider(
    names_from = sex, 
    names_prefix = 'nb_births_',
    values_from = nb_births, 
    values_fill = 0
  )

tbl_names_unisex_2
#> # A tibble: 101,338 × 3
#>    name      nb_births_M nb_births_F
#>    <chr>           <dbl>       <dbl>
#>  1 Aaban             120           0
#>  2 Aabha               0          51
#>  3 Aabid              16           0
#>  4 Aabidah             0           5
#>  5 Aabir              10           0
#>  6 Aabriella           0          51
#>  7 Aada                0          13
#>  8 Aadam             320           0
#>  9 Aadan             130           0
#> 10 Aadarsh           233           0
#> # ℹ 101,328 more rows
```
…
The wide format makes it easier to compute the percentage of males and
percentage of females for each name. Additionally, let us also add a
column for the total number of births across sexes for a given name.

``` r
tbl_names_unisex_3 <- tbl_names_unisex_2 |> 
 mutate(
   nb_births_total = nb_births_M + nb_births_F,
   pct_births_M = nb_births_M / nb_births_total,
   pct_births_F = nb_births_F / nb_births_total
 )

tbl_names_unisex_3
#> # A tibble: 101,338 × 6
#>    name      nb_births_M nb_births_F nb_births_total pct_births_M pct_births_F
#>    <chr>           <dbl>       <dbl>           <dbl>        <dbl>        <dbl>
#>  1 Aaban             120           0             120            1            0
#>  2 Aabha               0          51              51            0            1
#>  3 Aabid              16           0              16            1            0
#>  4 Aabidah             0           5               5            0            1
#>  5 Aabir              10           0              10            1            0
#>  6 Aabriella           0          51              51            0            1
#>  7 Aada                0          13              13            0            1
#>  8 Aadam             320           0             320            1            0
#>  9 Aadan             130           0             130            1            0
#> 10 Aadarsh           233           0             233            1            0
#> # ℹ 101,328 more rows
```
…
#### Step 1

Begin by grouping the data by `name` and `sex` and computing the total
number of births for each `name` and `sex` combination.

``` r
tbl_names_unisex_v2_1 <- tbl_names |> 
  # Group by name and sex
  group_by(name, sex) |> 
  # Summarize the total number of births, drop the grouping
  summarize(nb_births = sum(nb_births), .groups = 'drop')
  
tbl_names_unisex_v2_1
#> # A tibble: 112,620 × 3
#>    name      sex   nb_births
#>    <chr>     <chr>     <dbl>
#>  1 Aaban     M           120
#>  2 Aabha     F            51
#>  3 Aabid     M            16
#>  4 Aabidah   F             5
#>  5 Aabir     M            10
#>  6 Aabriella F            51
#>  7 Aada      F            13
#>  8 Aadam     M           320
#>  9 Aadan     M           130
#> 10 Aadarsh   M           233
#> # ℹ 112,610 more rows
```
…
``` r
tbl_names_unisex_v2_2 <- tbl_names_unisex_v2_1 |> 
  # Group by name
  group_by(name) |> 
  # For each name, add NEW columns with number and pct of births
  mutate(
    nb_births_total = sum(nb_births),
    pct_births = nb_births / nb_births_total
  ) |> 
  # Remove the grouping
  ungroup()

tbl_names_unisex_v2_2
#> # A tibble: 112,620 × 5
#>    name      sex   nb_births nb_births_total pct_births
#>    <chr>     <chr>     <dbl>           <dbl>      <dbl>
#>  1 Aaban     M           120             120          1
#>  2 Aabha     F            51              51          1
#>  3 Aabid     M            16              16          1
#>  4 Aabidah   F             5               5          1
#>  5 Aabir     M            10              10          1
#>  6 Aabriella F            51              51          1
#>  7 Aada      F            13              13          1
#>  8 Aadam     M           320             320          1
#>  9 Aadan     M           130             130          1
#> 10 Aadarsh   M           233             233          1
#> # ℹ 112,610 more rows
```
…
``` r
tbl_names_unisex_trends_1 <- tbl_names |> 
  # Semi join with `tbl_names_unisex` by name
  semi_join(tbl_names_unisex, by = "name") |> 
  # Group by `name` and `year`
  group_by(name, year) |> 
  # Add columns for total number of births and pct births
  mutate(
    nb_births_total = sum(nb_births),
    pct_births = nb_births / nb_births_total
  )

tbl_names_unisex_trends_1
#> # A tibble: 3,662 × 6
#> # Groups:   name, year [2,190]
#>     year name    sex   nb_births nb_births_total pct_births
#>    <dbl> <chr>   <chr>     <dbl>           <dbl>      <dbl>
#>  1  1880 Jessie  F           635             789      0.805
#>  2  1880 Frankie F            17              17      1    
#>  3  1880 Tommie  F            10              25      0.4  
#>  4  1880 Jessie  M           154             789      0.195
#>  5  1880 Harley  M            70              70      1    
#>  6  1880 Emery   M            52              52      1    
#>  7  1880 Riley   M            41              41      1    
#>  8  1880 Emerson M            25              25      1    
#>  9  1880 Tommie  M            15              25      0.6  
#> 10  1880 Pat     M            12              12      1    
#> # ℹ 3,652 more rows
```
…
