…
We will use a handy dataset named `starwars` that ships with the `dplyr`
package, to illustrate the basic idea behind these data manipulation
operations. While the data is largely self explanatory, as always, you
can type `? starwars` to get more details on the data.

``` r
starwars
```

    #> # A tibble: 87 × 14
    #>    name     height  mass hair_color skin_color eye_color birth_year sex   gender
    #>    <chr>     <int> <dbl> <chr>      <chr>      <chr>          <dbl> <chr> <chr> 
    #>  1 Luke Sk…    172    77 blond      fair       blue            19   male  mascu…
    #>  2 C-3PO       167    75 <NA>       gold       yellow         112   none  mascu…
    #>  3 R2-D2        96    32 <NA>       white, bl… red             33   none  mascu…
    #>  4 Darth V…    202   136 none       white      yellow          41.9 male  mascu…
    #>  5 Leia Or…    150    49 brown      light      brown           19   fema… femin…
    #>  6 Owen La…    178   120 brown, gr… light      blue            52   male  mascu…
    #>  7 Beru Wh…    165    75 brown      light      blue            47   fema… femin…
    #>  8 R5-D4        97    32 <NA>       white, red red             NA   none  mascu…
    #>  9 Biggs D…    183    84 black      light      brown           24   male  mascu…
    #> 10 Obi-Wan…    182    77 auburn, w… fair       blue-gray       57   male  mascu…
    #> # ℹ 77 more rows
    #> # ℹ 5 more variables: homeworld <chr>, species <chr>, films <list>,
    #> #   vehicles <list>, starships <list>
…
Run these examples one at a time to understand what they accomplish. In
order to get the most out of it, have a hypothesis in place before you
run the line of code, so you can corroborate your understanding with the
results. Finally, don’t limit yourself to these examples. Come up with
your own criteria and explore.

``` r
# One criterion, One expression
filter(starwars, species == "Human")
```

    #> # A tibble: 35 × 14
    #>    name     height  mass hair_color skin_color eye_color birth_year sex   gender
    #>    <chr>     <int> <dbl> <chr>      <chr>      <chr>          <dbl> <chr> <chr> 
    #>  1 Luke Sk…    172    77 blond      fair       blue            19   male  mascu…
    #>  2 Darth V…    202   136 none       white      yellow          41.9 male  mascu…
    #>  3 Leia Or…    150    49 brown      light      brown           19   fema… femin…
    #>  4 Owen La…    178   120 brown, gr… light      blue            52   male  mascu…
    #>  5 Beru Wh…    165    75 brown      light      blue            47   fema… femin…
    #>  6 Biggs D…    183    84 black      light      brown           24   male  mascu…
    #>  7 Obi-Wan…    182    77 auburn, w… fair       blue-gray       57   male  mascu…
    #>  8 Anakin …    188    84 blond      fair       blue            41.9 male  mascu…
    #>  9 Wilhuff…    180    NA auburn, g… fair       blue            64   male  mascu…
    #> 10 Han Solo    180    80 brown      fair       brown           29   male  mascu…
    #> # ℹ 25 more rows
    #> # ℹ 5 more variables: homeworld <chr>, species <chr>, films <list>,
    #> #   vehicles <list>, starships <list>
…
``` r
filter(starwars, hair_color == "none" | eye_color == "black")
```

    #> # A tibble: 38 × 14
    #>    name     height  mass hair_color skin_color eye_color birth_year sex   gender
    #>    <chr>     <int> <dbl> <chr>      <chr>      <chr>          <dbl> <chr> <chr> 
    #>  1 Darth V…    202   136 none       white      yellow          41.9 male  mascu…
    #>  2 Greedo      173    74 <NA>       green      black           44   male  mascu…
    #>  3 IG-88       200   140 none       metal      red             15   none  mascu…
    #>  4 Bossk       190   113 none       green      red             53   male  mascu…
    #>  5 Lobot       175    79 none       light      blue            37   male  mascu…
    #>  6 Ackbar      180    83 none       brown mot… orange          41   male  mascu…
    #>  7 Nien Nu…    160    68 none       grey       black           NA   male  mascu…
    #>  8 Nute Gu…    191    90 none       mottled g… red             NA   male  mascu…
    #>  9 Jar Jar…    196    66 none       orange     orange          52   male  mascu…
    #> 10 Roos Ta…    224    82 none       grey       orange          NA   male  mascu…
    #> # ℹ 28 more rows
    #> # ℹ 5 more variables: homeworld <chr>, species <chr>, films <list>,
    #> #   vehicles <list>, starships <list>
…
#### `arrange`: Order rows using column values

The `arrange()` function lets you sort a table based on the values of
one or more columns. You can use the modifier function, `desc()`, to
indicate that you want to sort a column in the descending order.

``` r
# Single Column > Ascending
arrange(starwars, name)
```

    #> # A tibble: 87 × 14
    #>    name     height  mass hair_color skin_color eye_color birth_year sex   gender
    #>    <chr>     <int> <dbl> <chr>      <chr>      <chr>          <dbl> <chr> <chr> 
    #>  1 Ackbar      180    83 none       brown mot… orange          41   male  mascu…
    #>  2 Adi Gal…    184    50 none       dark       blue            NA   fema… femin…
    #>  3 Anakin …    188    84 blond      fair       blue            41.9 male  mascu…
    #>  4 Arvel C…     NA    NA brown      fair       brown           NA   male  mascu…
    #>  5 Ayla Se…    178    55 none       blue       hazel           48   fema… femin…
    #>  6 BB8          NA    NA none       none       black           NA   none  mascu…
    #>  7 Bail Pr…    191    NA black      tan        brown           67   male  mascu…
    #>  8 Barriss…    166    50 black      yellow     blue            40   fema… femin…
    #>  9 Ben Qua…    163    65 none       grey, gre… orange          NA   male  mascu…
    #> 10 Beru Wh…    165    75 brown      light      blue            47   fema… femin…
    #> # ℹ 77 more rows
    #> # ℹ 5 more variables: homeworld <chr>, species <chr>, films <list>,
    #> #   vehicles <list>, starships <list>

``` r
arrange(starwars, mass)
```

    #> # A tibble: 87 × 14
    #>    name     height  mass hair_color skin_color eye_color birth_year sex   gender
    #>    <chr>     <int> <dbl> <chr>      <chr>      <chr>          <dbl> <chr> <chr> 
    #>  1 Ratts T…     79    15 none       grey, blue unknown           NA male  mascu…
    #>  2 Yoda         66    17 white      green      brown            896 male  mascu…
    #>  3 Wicket …     88    20 brown      brown      brown              8 male  mascu…
    #>  4 R2-D2        96    32 <NA>       white, bl… red               33 none  mascu…
    #>  5 R5-D4        97    32 <NA>       white, red red               NA none  mascu…
    #>  6 Sebulba     112    40 none       grey, red  orange            NA male  mascu…
    #>  7 Dud Bolt     94    45 none       blue, grey yellow            NA male  mascu…
    #>  8 Padmé A…    165    45 brown      light      brown             46 fema… femin…
    #>  9 Wat Tam…    193    48 none       green, gr… unknown           NA male  mascu…
    #> 10 Sly Moo…    178    48 none       pale       white             NA <NA>  <NA>  
    #> # ℹ 77 more rows
    #> # ℹ 5 more variables: homeworld <chr>, species <chr>, films <list>,
    #> #   vehicles <list>, starships <list>

``` r
# Single Column > Descending
arrange(starwars, desc(mass))
```

    #> # A tibble: 87 × 14
    #>    name     height  mass hair_color skin_color eye_color birth_year sex   gender
    #>    <chr>     <int> <dbl> <chr>      <chr>      <chr>          <dbl> <chr> <chr> 
    #>  1 Jabba D…    175  1358 <NA>       green-tan… orange         600   herm… mascu…
    #>  2 Grievous    216   159 none       brown, wh… green, y…       NA   male  mascu…
    #>  3 IG-88       200   140 none       metal      red             15   none  mascu…
    #>  4 Darth V…    202   136 none       white      yellow          41.9 male  mascu…
    #>  5 Tarfful     234   136 brown      brown      blue            NA   male  mascu…
    #>  6 Owen La…    178   120 brown, gr… light      blue            52   male  mascu…
    #>  7 Bossk       190   113 none       green      red             53   male  mascu…
    #>  8 Chewbac…    228   112 brown      unknown    blue           200   male  mascu…
    #>  9 Jek Ton…    180   110 brown      fair       blue            NA   male  mascu…
    #> 10 Dexter …    198   102 none       brown      yellow          NA   male  mascu…
    #> # ℹ 77 more rows
    #> # ℹ 5 more variables: homeworld <chr>, species <chr>, films <list>,
    #> #   vehicles <list>, starships <list>

``` r
# Multiple Columns
arrange(starwars, name, desc(mass))
```

    #> # A tibble: 87 × 14
    #>    name     height  mass hair_color skin_color eye_color birth_year sex   gender
    #>    <chr>     <int> <dbl> <chr>      <chr>      <chr>          <dbl> <chr> <chr> 
    #>  1 Ackbar      180    83 none       brown mot… orange          41   male  mascu…
    #>  2 Adi Gal…    184    50 none       dark       blue            NA   fema… femin…
    #>  3 Anakin …    188    84 blond      fair       blue            41.9 male  mascu…
    #>  4 Arvel C…     NA    NA brown      fair       brown           NA   male  mascu…
    #>  5 Ayla Se…    178    55 none       blue       hazel           48   fema… femin…
    #>  6 BB8          NA    NA none       none       black           NA   none  mascu…
    #>  7 Bail Pr…    191    NA black      tan        brown           67   male  mascu…
    #>  8 Barriss…    166    50 black      yellow     blue            40   fema… femin…
    #>  9 Ben Qua…    163    65 none       grey, gre… orange          NA   male  mascu…
    #> 10 Beru Wh…    165    75 brown      light      blue            47   fema… femin…
    #> # ℹ 77 more rows
    #> # ℹ 5 more variables: homeworld <chr>, species <chr>, films <list>,
    #> #   vehicles <list>, starships <list>
…
    #> # A tibble: 5 × 1
    #>   sex           
    #>   <chr>         
    #> 1 male          
    #> 2 none          
    #> 3 female        
    #> 4 hermaphroditic
    #> 5 <NA>

``` r
# Multiple Columns
distinct(starwars, sex, skin_color)
```

    #> # A tibble: 41 × 2
    #>    sex            skin_color      
    #>    <chr>          <chr>           
    #>  1 male           fair            
    #>  2 none           gold            
    #>  3 none           white, blue     
    #>  4 male           white           
    #>  5 female         light           
    #>  6 male           light           
    #>  7 none           white, red      
    #>  8 male           unknown         
    #>  9 male           green           
    #> 10 hermaphroditic green-tan, brown
    #> # ℹ 31 more rows
…
### Manipulating Columns

#### `select`: Keep or drop columns (1 / 2)

The `select` function lets you keep or drop columns in a dataset. You
can use unquoted column names, ranges, and even boolean operators to
define your selection.

``` r
# Keep columns name and mass
select(starwars, name, mass)
```

    #> # A tibble: 87 × 2
    #>    name                mass
    #>    <chr>              <dbl>
    #>  1 Luke Skywalker        77
    #>  2 C-3PO                 75
    #>  3 R2-D2                 32
    #>  4 Darth Vader          136
    #>  5 Leia Organa           49
    #>  6 Owen Lars            120
    #>  7 Beru Whitesun lars    75
    #>  8 R5-D4                 32
    #>  9 Biggs Darklighter     84
    #> 10 Obi-Wan Kenobi        77
    #> # ℹ 77 more rows

``` r
# Keep columns from name to skin_color, and species
select(starwars, name:skin_color, species)
```

    #> # A tibble: 87 × 6
    #>    name               height  mass hair_color    skin_color  species
    #>    <chr>               <int> <dbl> <chr>         <chr>       <chr>  
    #>  1 Luke Skywalker        172    77 blond         fair        Human  
    #>  2 C-3PO                 167    75 <NA>          gold        Droid  
    #>  3 R2-D2                  96    32 <NA>          white, blue Droid  
    #>  4 Darth Vader           202   136 none          white       Human  
    #>  5 Leia Organa           150    49 brown         light       Human  
    #>  6 Owen Lars             178   120 brown, grey   light       Human  
    #>  7 Beru Whitesun lars    165    75 brown         light       Human  
    #>  8 R5-D4                  97    32 <NA>          white, red  Droid  
    #>  9 Biggs Darklighter     183    84 black         light       Human  
    #> 10 Obi-Wan Kenobi        182    77 auburn, white fair        Human  
    #> # ℹ 77 more rows

``` r
# Drop columns mass and height
select(starwars, -mass, -height)
```

    #> # A tibble: 87 × 12
    #>    name        hair_color skin_color eye_color birth_year sex   gender homeworld
    #>    <chr>       <chr>      <chr>      <chr>          <dbl> <chr> <chr>  <chr>    
    #>  1 Luke Skywa… blond      fair       blue            19   male  mascu… Tatooine 
    #>  2 C-3PO       <NA>       gold       yellow         112   none  mascu… Tatooine 
    #>  3 R2-D2       <NA>       white, bl… red             33   none  mascu… Naboo    
    #>  4 Darth Vader none       white      yellow          41.9 male  mascu… Tatooine 
    #>  5 Leia Organa brown      light      brown           19   fema… femin… Alderaan 
    #>  6 Owen Lars   brown, gr… light      blue            52   male  mascu… Tatooine 
    #>  7 Beru White… brown      light      blue            47   fema… femin… Tatooine 
    #>  8 R5-D4       <NA>       white, red red             NA   none  mascu… Tatooine 
    #>  9 Biggs Dark… black      light      brown           24   male  mascu… Tatooine 
    #> 10 Obi-Wan Ke… auburn, w… fair       blue-gray       57   male  mascu… Stewjon  
    #> # ℹ 77 more rows
    #> # ℹ 4 more variables: species <chr>, films <list>, vehicles <list>,
    #> #   starships <list>

``` r
# Drop columns from mass to skin_color
select(starwars, !(mass:skin_color))
```

    #> # A tibble: 87 × 11
    #>    name         height eye_color birth_year sex   gender homeworld species films
    #>    <chr>         <int> <chr>          <dbl> <chr> <chr>  <chr>     <chr>   <lis>
    #>  1 Luke Skywal…    172 blue            19   male  mascu… Tatooine  Human   <chr>
    #>  2 C-3PO           167 yellow         112   none  mascu… Tatooine  Droid   <chr>
    #>  3 R2-D2            96 red             33   none  mascu… Naboo     Droid   <chr>
    #>  4 Darth Vader     202 yellow          41.9 male  mascu… Tatooine  Human   <chr>
    #>  5 Leia Organa     150 brown           19   fema… femin… Alderaan  Human   <chr>
    #>  6 Owen Lars       178 blue            52   male  mascu… Tatooine  Human   <chr>
    #>  7 Beru Whites…    165 blue            47   fema… femin… Tatooine  Human   <chr>
    #>  8 R5-D4            97 red             NA   none  mascu… Tatooine  Droid   <chr>
    #>  9 Biggs Darkl…    183 brown           24   male  mascu… Tatooine  Human   <chr>
    #> 10 Obi-Wan Ken…    182 blue-gray       57   male  mascu… Stewjon   Human   <chr>
    #> # ℹ 77 more rows
    #> # ℹ 2 more variables: vehicles <list>, starships <list>
…
To get the most out of this, please run each example separately. Also,
look up the examples in the package by typing `? dplyr::select` in your
R console. These functions are the basic building blocks of data
manipulation and provide you with a very wide toolkit. The more you are
able to hold these in your muscle memory, the more adept you will become
with data manipulation.

``` r
# Keep columns containing the word "color"
select(starwars, contains("color"))
```

    #> # A tibble: 87 × 3
    #>    hair_color    skin_color  eye_color
    #>    <chr>         <chr>       <chr>    
    #>  1 blond         fair        blue     
    #>  2 <NA>          gold        yellow   
    #>  3 <NA>          white, blue red      
    #>  4 none          white       yellow   
    #>  5 brown         light       brown    
    #>  6 brown, grey   light       blue     
    #>  7 brown         light       blue     
    #>  8 <NA>          white, red  red      
    #>  9 black         light       brown    
    #> 10 auburn, white fair        blue-gray
    #> # ℹ 77 more rows

``` r
# Keep columns ending with the word "color"
select(starwars, ends_with("color"))
```

    #> # A tibble: 87 × 3
    #>    hair_color    skin_color  eye_color
    #>    <chr>         <chr>       <chr>    
    #>  1 blond         fair        blue     
    #>  2 <NA>          gold        yellow   
    #>  3 <NA>          white, blue red      
    #>  4 none          white       yellow   
    #>  5 brown         light       brown    
    #>  6 brown, grey   light       blue     
    #>  7 brown         light       blue     
    #>  8 <NA>          white, red  red      
    #>  9 black         light       brown    
    #> 10 auburn, white fair        blue-gray
    #> # ℹ 77 more rows

``` r
# Keep columns which are numeric
select(starwars, where(is.numeric))
```

    #> # A tibble: 87 × 3
    #>    height  mass birth_year
    #>     <int> <dbl>      <dbl>
    #>  1    172    77       19  
    #>  2    167    75      112  
    #>  3     96    32       33  
    #>  4    202   136       41.9
    #>  5    150    49       19  
    #>  6    178   120       52  
    #>  7    165    75       47  
    #>  8     97    32       NA  
    #>  9    183    84       24  
    #> 10    182    77       57  
    #> # ℹ 77 more rows

``` r
# Keep columns which are lists
select(starwars, where(is.list))
```

    #> # A tibble: 87 × 3
    #>    films     vehicles  starships
    #>    <list>    <list>    <list>   
    #>  1 <chr [5]> <chr [2]> <chr [2]>
    #>  2 <chr [6]> <chr [0]> <chr [0]>
    #>  3 <chr [7]> <chr [0]> <chr [0]>
    #>  4 <chr [4]> <chr [0]> <chr [1]>
    #>  5 <chr [5]> <chr [1]> <chr [0]>
    #>  6 <chr [3]> <chr [0]> <chr [0]>
    #>  7 <chr [3]> <chr [0]> <chr [0]>
    #>  8 <chr [1]> <chr [0]> <chr [0]>
    #>  9 <chr [1]> <chr [0]> <chr [1]>
    #> 10 <chr [6]> <chr [1]> <chr [5]>
    #> # ℹ 77 more rows

#### `mutate`: Create, modify, and delete columns

``` r
# Create column mass_lbs
mutate(starwars, mass_lbs = mass * 2.2)
```

    #> # A tibble: 87 × 15
    #>    name     height  mass hair_color skin_color eye_color birth_year sex   gender
    #>    <chr>     <int> <dbl> <chr>      <chr>      <chr>          <dbl> <chr> <chr> 
    #>  1 Luke Sk…    172    77 blond      fair       blue            19   male  mascu…
    #>  2 C-3PO       167    75 <NA>       gold       yellow         112   none  mascu…
    #>  3 R2-D2        96    32 <NA>       white, bl… red             33   none  mascu…
    #>  4 Darth V…    202   136 none       white      yellow          41.9 male  mascu…
    #>  5 Leia Or…    150    49 brown      light      brown           19   fema… femin…
    #>  6 Owen La…    178   120 brown, gr… light      blue            52   male  mascu…
    #>  7 Beru Wh…    165    75 brown      light      blue            47   fema… femin…
    #>  8 R5-D4        97    32 <NA>       white, red red             NA   none  mascu…
    #>  9 Biggs D…    183    84 black      light      brown           24   male  mascu…
    #> 10 Obi-Wan…    182    77 auburn, w… fair       blue-gray       57   male  mascu…
    #> # ℹ 77 more rows
    #> # ℹ 6 more variables: homeworld <chr>, species <chr>, films <list>,
    #> #   vehicles <list>, starships <list>, mass_lbs <dbl>
…
