…
### Read CSV File

Let us now read the text file `yob1880.txt`, into a data frame using the
`read_csv()` function from the `readr` package. We will use the
connection object `file_con` that we created previously.

``` r
tbl_names <- readr::read_csv(
  file = file_con, 
  col_names = c('name', 'sex', 'nb_births'),
  show_col_types = FALSE
)

tbl_names
#> # A tibble: 2,000 × 3
#>    name      sex   nb_births
#>    <chr>     <chr>     <dbl>
#>  1 Mary      F          7065
#>  2 Anna      F          2604
#>  3 Emma      F          2003
#>  4 Elizabeth F          1939
#>  5 Minnie    F          1746
#>  6 Margaret  F          1578
#>  7 Ida       F          1472
#>  8 Alice     F          1414
#>  9 Bertha    F          1320
#> 10 Sarah     F          1288
#> # ℹ 1,990 more rows
```
…
4.  The `id = 'year'` argument specifies that the path to the file
    should be added as an extra column named `year`. This is required in
    order to add the `year` information to the data frame, since it is
    not already present.

``` r
tbl_names <- readr::read_csv(
  file = NAMES_TXT_FILES,
  col_names = c('name', 'sex', 'nb_births'),
  show_col_types = FALSE,
  id = 'year'
)

tbl_names
#> # A tibble: 2,052,781 × 4
#>    year                                                    name  sex   nb_births
#>    <chr>                                                   <chr> <chr>     <dbl>
#>  1 /var/folders/8_/dp4gxnx554g5064bqc49b6rw0000gn/T/RtmpR… Mary  F          7065
#>  2 /var/folders/8_/dp4gxnx554g5064bqc49b6rw0000gn/T/RtmpR… Anna  F          2604
#>  3 /var/folders/8_/dp4gxnx554g5064bqc49b6rw0000gn/T/RtmpR… Emma  F          2003
#>  4 /var/folders/8_/dp4gxnx554g5064bqc49b6rw0000gn/T/RtmpR… Eliz… F          1939
#>  5 /var/folders/8_/dp4gxnx554g5064bqc49b6rw0000gn/T/RtmpR… Minn… F          1746
#>  6 /var/folders/8_/dp4gxnx554g5064bqc49b6rw0000gn/T/RtmpR… Marg… F          1578
#>  7 /var/folders/8_/dp4gxnx554g5064bqc49b6rw0000gn/T/RtmpR… Ida   F          1472
#>  8 /var/folders/8_/dp4gxnx554g5064bqc49b6rw0000gn/T/RtmpR… Alice F          1414
#>  9 /var/folders/8_/dp4gxnx554g5064bqc49b6rw0000gn/T/RtmpR… Bert… F          1320
#> 10 /var/folders/8_/dp4gxnx554g5064bqc49b6rw0000gn/T/RtmpR… Sarah F          1288
#> # ℹ 2,052,771 more rows
```

Note that the `year` column contains the full path to the text file and
hence we will need to extract just the numerical portion of the file
name. We can use the `mutate()` function from the `dplyr` package to
modify the `year` column and replace its values by the parsed numerical
value of year.

``` r
tbl_names <- tbl_names |> 
  dplyr::mutate(year = readr::parse_number(basename(year))) 

tbl_names
#> # A tibble: 2,052,781 × 4
#>     year name      sex   nb_births
#>    <dbl> <chr>     <chr>     <dbl>
#>  1  1880 Mary      F          7065
#>  2  1880 Anna      F          2604
#>  3  1880 Emma      F          2003
#>  4  1880 Elizabeth F          1939
#>  5  1880 Minnie    F          1746
#>  6  1880 Margaret  F          1578
#>  7  1880 Ida       F          1472
#>  8  1880 Alice     F          1414
#>  9  1880 Bertha    F          1320
#> 10  1880 Sarah     F          1288
#> # ℹ 2,052,771 more rows
```
…
