…
# Read the csv file `file_name_names` as data frame `tbl_names`
file_name_names <- here::here("data/names.csv.gz")
tbl_names <- readr::read_csv(
  file = file_name_names, 
  show_col_types = FALSE
)

# Print `tbl_names`
tbl_names
```

    #> # A tibble: 2,052,781 × 4
    #>     year name      sex   nb_births
    #>    <dbl> <chr>     <chr>     <dbl>
    #>  1  1880 Mary      F          7065
    #>  2  1880 Anna      F          2604
    #>  3  1880 Emma      F          2003
    #>  4  1880 Elizabeth F          1939
    #>  5  1880 Minnie    F          1746
    #>  6  1880 Margaret  F          1578
    #>  7  1880 Ida       F          1472
    #>  8  1880 Alice     F          1414
    #>  9  1880 Bertha    F          1320
    #> 10  1880 Sarah     F          1288
    #> # ℹ 2,052,771 more rows
…
``` r
tbl_names = tbl_names |> 
  # Add NEW column first_letter by extracting `first_letter` from name using `str_sub`
  mutate(first_letter = str_sub(name, 1, 1)) |>  
  # Add NEW column last_letter by extracting `last_letter` from name using `str_sub`
  mutate(last_letter = str_sub(name, -1, -1)) |> 
  # UPDATE column `last_letter` to upper case using `str_to_upper`
  mutate(last_letter = str_to_upper(last_letter))

tbl_names
```

    #> # A tibble: 2,052,781 × 6
    #>     year name      sex   nb_births first_letter last_letter
    #>    <dbl> <chr>     <chr>     <dbl> <chr>        <chr>      
    #>  1  1880 Mary      F          7065 M            Y          
    #>  2  1880 Anna      F          2604 A            A          
    #>  3  1880 Emma      F          2003 E            A          
    #>  4  1880 Elizabeth F          1939 E            H          
    #>  5  1880 Minnie    F          1746 M            E          
    #>  6  1880 Margaret  F          1578 M            T          
    #>  7  1880 Ida       F          1472 I            A          
    #>  8  1880 Alice     F          1414 A            E          
    #>  9  1880 Bertha    F          1320 B            A          
    #> 10  1880 Sarah     F          1288 S            H          
    #> # ℹ 2,052,771 more rows
…
``` r
tbl_names_by_letter = tbl_names |> 
  # Group by year, sex and first_letter
  group_by(year, sex, first_letter) |> 
  # Summarize total number of births, drop the grouping
  summarize(nb_births = sum(nb_births), .groups = "drop") |> 
  # Group by year and sex
  group_by(year, sex) |> 
  # Add NEW column pct_births by dividing nb_births by sum(nb_births)
  mutate(pct_births = nb_births / sum(nb_births))
  
tbl_names_by_letter
```

    #> # A tibble: 7,313 × 5
    #> # Groups:   year, sex [284]
    #>     year sex   first_letter nb_births pct_births
    #>    <dbl> <chr> <chr>            <dbl>      <dbl>
    #>  1  1880 F     A                 9334     0.103 
    #>  2  1880 F     B                 3876     0.0426
    #>  3  1880 F     C                 5868     0.0645
    #>  4  1880 F     D                 2218     0.0244
    #>  5  1880 F     E                11444     0.126 
    #>  6  1880 F     F                 2957     0.0325
    #>  7  1880 F     G                 2463     0.0271
    #>  8  1880 F     H                 2743     0.0301
    #>  9  1880 F     I                 2480     0.0273
    #> 10  1880 F     J                 3800     0.0418
    #> # ℹ 7,303 more rows
…
tbl_names_by_first_and_last_letter
```

    #> # A tibble: 43,579 × 5
    #>    first_letter last_letter  year nb_births pct_births
    #>    <chr>        <chr>       <dbl>     <dbl>      <dbl>
    #>  1 A            A            1880      4784     0.0526
    #>  2 A            A            1881      4966     0.0540
    #>  3 A            A            1882      5728     0.0531
    #>  4 A            A            1883      6051     0.0539
    #>  5 A            A            1884      7038     0.0546
    #>  6 A            A            1885      7203     0.0541
    #>  7 A            A            1886      7785     0.0539
    #>  8 A            A            1887      7814     0.0535
    #>  9 A            A            1888      9444     0.0529
    #> 10 A            A            1889      9365     0.0525
    #> # ℹ 43,569 more rows
…
tbl_names_vowel_consonant
```

    #> # A tibble: 1,136 × 5
    #>    sex    year first_last          nb_births pct_births
    #>    <chr> <dbl> <chr>                   <dbl>      <dbl>
    #>  1 F      1880 consonant_consonant     19988     0.220 
    #>  2 F      1880 consonant_vowel         46765     0.514 
    #>  3 F      1880 vowel_consonant          5708     0.0627
    #>  4 F      1880 vowel_vowel             18533     0.204 
    #>  5 F      1881 consonant_consonant     20069     0.218 
    #>  6 F      1881 consonant_vowel         47287     0.514 
    #>  7 F      1881 vowel_consonant          5669     0.0617
    #>  8 F      1881 vowel_vowel             18928     0.206 
    #>  9 F      1882 consonant_consonant     23561     0.218 
    #> 10 F      1882 consonant_vowel         55449     0.514 
    #> # ℹ 1,126 more rows
…
