…
Let us load the `tidyverse` and read the babynames data so we can use it
to explore data aggregation.

``` r
# Load packages and common utility functions
library(tidyverse)
source(here::here("_common.R"))
```

``` r
file_name_names <- here::here("data/names.csv.gz")
tbl_names <- readr::read_csv(file_name_names, show_col_types = FALSE)
tbl_names
#> # A tibble: 2,052,781 × 4
#>     year name      sex   nb_births
#>    <dbl> <chr>     <chr>     <dbl>
#>  1  1880 Mary      F          7065
#>  2  1880 Anna      F          2604
#>  3  1880 Emma      F          2003
#>  4  1880 Elizabeth F          1939
#>  5  1880 Minnie    F          1746
#>  6  1880 Margaret  F          1578
#>  7  1880 Ida       F          1472
#>  8  1880 Alice     F          1414
#>  9  1880 Bertha    F          1320
#> 10  1880 Sarah     F          1288
#> # ℹ 2,052,771 more rows
```

### `group_by()`: Group by one or more variables

The `group_by()` function lets you group a table by one or more columns.
Applying the `group_by` function to a table does not change its
appearance, except for adding some metadata on the grouping variables.

``` r
# Group by ONE column
tbl_names |> 
  group_by(sex)
#> # A tibble: 2,052,781 × 4
#> # Groups:   sex [2]
#>     year name      sex   nb_births
#>    <dbl> <chr>     <chr>     <dbl>
#>  1  1880 Mary      F          7065
#>  2  1880 Anna      F          2604
#>  3  1880 Emma      F          2003
#>  4  1880 Elizabeth F          1939
#>  5  1880 Minnie    F          1746
#>  6  1880 Margaret  F          1578
#>  7  1880 Ida       F          1472
#>  8  1880 Alice     F          1414
#>  9  1880 Bertha    F          1320
#> 10  1880 Sarah     F          1288
#> # ℹ 2,052,771 more rows
```

``` r
# Group by multiple columns
tbl_names |> 
  group_by(sex, name)
#> # A tibble: 2,052,781 × 4
#> # Groups:   sex, name [112,620]
#>     year name      sex   nb_births
#>    <dbl> <chr>     <chr>     <dbl>
#>  1  1880 Mary      F          7065
#>  2  1880 Anna      F          2604
#>  3  1880 Emma      F          2003
#>  4  1880 Elizabeth F          1939
#>  5  1880 Minnie    F          1746
#>  6  1880 Margaret  F          1578
#>  7  1880 Ida       F          1472
#>  8  1880 Alice     F          1414
#>  9  1880 Bertha    F          1320
#> 10  1880 Sarah     F          1288
#> # ℹ 2,052,771 more rows
```
…
How about we try grouping by multiple variables? Let us compute the same
summaries, but grouping by `sex` and `year` this time.

``` r
tbl_names |> 
  group_by(sex, year) |> 
  summarize(
    nb_births = sum(nb_births),
    nb_names = n_distinct(name)
  )
#> `summarise()` has grouped output by 'sex'. You can override using the `.groups`
#> argument.
#> # A tibble: 284 × 4
#> # Groups:   sex [2]
#>    sex    year nb_births nb_names
#>    <chr> <dbl>     <dbl>    <int>
#>  1 F      1880     90994      942
#>  2 F      1881     91953      938
#>  3 F      1882    107847     1028
#>  4 F      1883    112319     1054
#>  5 F      1884    129019     1172
#>  6 F      1885    133055     1197
#>  7 F      1886    144533     1282
#>  8 F      1887    145982     1306
#>  9 F      1888    178622     1474
#> 10 F      1889    178366     1479
#> # ℹ 274 more rows
```
…
My recommendation would be to override this default behavior and always
drop all grouping after a summarize operation. This might add some
overhead especially if you are going to group it again. But doing that
explicitly will save you a lot of pain.

``` r
tbl_names |> 
  group_by(sex, year) |> 
  summarize(
    nb_births = sum(nb_births),
    nb_names = n_distinct(name),
    .groups = "drop"
  )
#> # A tibble: 284 × 4
#>    sex    year nb_births nb_names
#>    <chr> <dbl>     <dbl>    <int>
#>  1 F      1880     90994      942
#>  2 F      1881     91953      938
#>  3 F      1882    107847     1028
#>  4 F      1883    112319     1054
#>  5 F      1884    129019     1172
#>  6 F      1885    133055     1197
#>  7 F      1886    144533     1282
#>  8 F      1887    145982     1306
#>  9 F      1888    178622     1474
#> 10 F      1889    178366     1479
#> # ℹ 274 more rows
```
…
``` r
tbl_names |> 
  group_by(sex, name) |> 
  mutate(
    nb_births_total = sum(nb_births),
    pct_births_in_year = nb_births / nb_births_total
  ) |> 
  ungroup() |> 
  filter(nb_births_total > 50000) |> 
  arrange(desc(pct_births_in_year))
#> # A tibble: 130,352 × 6
#>     year name    sex   nb_births nb_births_total pct_births_in_year
#>    <dbl> <chr>   <chr>     <dbl>           <dbl>              <dbl>
#>  1  2021 Luna    F          8173           57494              0.142
#>  2  2020 Luna    F          7818           57494              0.136
#>  3  2019 Luna    F          7778           57494              0.135
#>  4  2018 Mila    F          8158           61710              0.132
#>  5  2018 Luna    F          6931           57494              0.121
#>  6  2019 Mila    F          7330           61710              0.119
#>  7  2012 Bentley M          5883           52305              0.112
#>  8  2021 Mateo   M          9112           82438              0.111
#>  9  2019 Mateo   M          9001           82438              0.109
#> 10  2020 Mateo   M          8967           82438              0.109
#> # ℹ 130,342 more rows
```
…
